{
  "type": "service_account",
  "project_id": "shield-268115",
  "private_key_id": "4cce18ff08b3ea1c12c44b843ae7059f47f723b7",
  "private_key": "-----BEGIN PRIVATE KEY-----\nMIIEvQIBADANBgkqhkiG9w0BAQEFAASCBKcwggSjAgEAAoIBAQDD2anGiSxZYOUU\nsHAlunZh92M7eFfqoXm8zBKjUQS5Ax9wrJUS2zj8So7nWoZZMb/4QVD4r+7fDJ5s\nWYH4zvVaJ94mPK1VYejhDSy2FDocENI7iPEcVNh/or7PO/7uQC6hE7eHvKmTqW+r\ndwX+bn5Q9+hwX6mkUx0x2a/j7TVQ2/CuSH5R9YWcpR61WNZysUzIV564ccGEasz8\nssQisGF+arQ46tRTwzaOOmum9MVkVcDa4pXiM3ANy79HtLQxloIytpkGem+mnyp2\nCB/AD6oLv2xr/1bPOVUPz+UKtHYUkakFtesd0wFy8OSh4KoZ1SuKDf0IwGnoLoF3\nwA8X8CjhAgMBAAECggEAUFxgoFkqvGXYuXuIGMMAzkPfEMjZcindtM0bnK2ivXN9\nlBMMfBc9s6+4IU/wrmqOdYP/gHtYDWe1HYpAnWH2JI8VRSVCjjVFhAqO3QtBqMBy\nMwGGxXQ+/Wg+2POqMAJf37IibWzJPBCbBIUrDXIzHHAMjQeDqSx9XzYOSPzNEqbk\nwnfGQaJqvkXh00hVtFW4z3MWCXbWmgkLtFTLr5J4Fm2Aeo7TgWrobOQLrh2sKh/j\nMgwAxD3iEtc8TY+FdxcAxNP+Skvl2+ZL4GcLr1QWKKVGZNz1tCRdpiIwy58zYE9e\nJbimMe9+FVcYOyrrfTZlQ38Ne0YX4AOhkIiI8u2JLQKBgQDgj0pZBckn/3fvXUq0\n6S0+HLoYhOYDaIgPWUZ4IR24B/dx8xHJgXGwnStHchgvd1rTbfrYf/s77oK996OA\nrnpHN1UklPH8DG9HEes8LFxmF99GW4rYZ7xO34ncO3Vcq0fZJDBRIRjPZ3P+bS3K\nfQzou1ZLCK7CbA4qM2MV2rhxRwKBgQDfRVzJKPF2XmMABNcRZQC/bMteFEYuEub6\nx/v4pXJ85qV1UWvPZ8vTuKPAWb97CKxRhyZVwc/1Ia5mfgpgDM1GCUNSvYAI1DC/\nRn9EVXOjo8ypOnQbifp15maLrA0oZnkOFU15D9FWlXozHV+dly+HSQbCJwdLjz88\nrSXeJBvolwKBgHyz1gu9xMlrewT3/8abPr6hYU7AbqMx52zunM2VRlWuRuGGpDgM\npD/559DTMU8artt+1bBo0fGkMAKihK+vNMRbm/KmrALWPO1wq/tMfztKwnjl2SL3\n6IC8bmhYtIHztACHsjU7dfWnc6i0pJsv+n07m14rwjDBpNQWmU3Hmml9AoGBALAy\nJeod5IgcLpaKO0tf4PowGkGxUDz179BC2Ac+UZ5dyn9N9P2llQYNdTTL3r9ydcKV\nHFya6ckyflYl63wnPiuiDb4TDCJridi5AqBjqzGdh1qZZZ2CAuTeIVjiOzQBwlCp\n4QzDvdlNdzU1XgqYkAp8R9gaQriPYEE7B2JKLrgbAoGAHIvInDEuHqbXhtbBlgQ7\nfZHUWRIA4N5L9C69yOecf7vdCpYtiXSrvDR3jSLNRaJ7c9hSoKI6b0ZTZ8QhW9VC\njsOOcTNz6y2sDa1caj2p/QE/0zUsAFYZeGCuXbfT+X33uM6FBQm9qz5TF0Ujp7xh\nGLmox7Hf0v9eO4kRnlj19u4=\n-----END PRIVATE KEY-----\n",
  "client_email": "compass-shield-bucket@shield-268115.iam.gserviceaccount.com",
  "client_id": "106769234915157011865",
  "auth_uri": "https://accounts.google.com/o/oauth2/auth",
  "token_uri": "https://oauth2.googleapis.com/token",
  "auth_provider_x509_cert_url": "https://www.googleapis.com/oauth2/v1/certs",
  "client_x509_cert_url": "https://www.googleapis.com/robot/v1/metadata/x509/compass-shield-bucket%40shield-268115.iam.gserviceaccount.com"
}
